{
  "routes": [
    {
      "method": "GET",
      "path": "/loans",
      "handler": "loans.find",
      "config": {
        "policies": []
      }
    },
    {
      "method": "GET",
      "path": "/loans/count",
      "handler": "loans.count",
      "config": {
        "policies": []
      }
    },
    {
      "method": "GET",
      "path": "/loans/:id",
      "handler": "loans.findOne",
      "config": {
        "policies": []
      }
    },
    {
      "method": "POST",
      "path": "/loans",
      "handler": "loans.create",
      "config": {
        "policies": []
      }
    },
    {
      "method": "PUT",
      "path": "/loans/:id",
      "handler": "loans.update",
      "config": {
        "policies": []
      }
    },
    {
      "method": "DELETE",
      "path": "/loans/:id",
      "handler": "loans.delete",
      "config": {
        "policies": []
      }
    }
  ]
}
